…
### produccion

Ver la producción anual de cada actividad económica.

``` r
library(tidyverse)

data(produccion)

produccion %>%
  group_by(año, actividad_economica) %>%
  summarise(produccion_anual = sum(hnl))
#> # A tibble: 315 x 3
#> # Groups:   año [21]
#>      año actividad_economica                                    produccion_anual
#>    <int> <chr>                                                             <dbl>
#>  1  2000 Administración Pública y Defensa; Planes de Seguridad…            5921.
#>  2  2000 Agricultura, Ganadería, Caza, Silvicultura y Pesca               15329.
#>  3  2000 Comercio, Reparación de Vehículos Automotores, Motoci…           15710.
#>  4  2000 Comunicaciones                                                    4090.
#>  5  2000 Construcción                                                      6244.
#>  6  2000 Electricidad y Distribución de Agua                               2701 
#>  7  2000 Explotación de Minas y Canteras                                    489.
#>  8  2000 Impuestos netos de subvenciones sobre la producción y…           10118.
#>  9  2000 Industrias Manufactureras                                        21902.
#> 10  2000 Intermediación Financiera                                         5084.
#> # … with 305 more rows
```
…
